[{
	"data": {
		"type": "Feature",
		"properties": {
			"sensor_name": "tracker1",
			"timestamp_array": [
				1451606400,
				1454284800,
				1456790400,
				1459468800,
				1462060800,
				1464739200,
				1467331200,
				1470009600,
				1472688000,
				1475280000,
				1477958400,
				1480550400,
				1483228800,
				1485907200,
				1488326400,
				1491004800,
				1493596800,
				1496275200,
				1498867200,
				1501545600,
				1504224000
			]
		},
		"geometry": {
			"type": "LineString",
			"coordinates": [
				[-122.48369693756104, 37.83381888486939],
				[-122.48348236083984, 37.83317489144141],
				[-122.48339653015138, 37.83270036637107],
				[-122.48356819152832, 37.832056363179625],
				[-122.48404026031496, 37.83114119107971],
				[-122.48404026031496, 37.83049717427869],
				[-122.48348236083984, 37.829920943955045],
				[-122.48356819152832, 37.82954808664175],
				[-122.48507022857666, 37.82944639795659],
				[-122.48610019683838, 37.82880236636284],
				[-122.48695850372314, 37.82931081282506],
				[-122.48700141906738, 37.83080223556934],
				[-122.48751640319824, 37.83168351665737],
				[-122.48803138732912, 37.832158048267786],
				[-122.48888969421387, 37.83297152392784],
				[-122.48987674713133, 37.83263257682617],
				[-122.49043464660643, 37.832937629287755],
				[-122.49125003814696, 37.832429207817725],
				[-122.49163627624512, 37.832564787218985],
				[-122.49223709106445, 37.83337825839438],
				[-122.49378204345702, 37.83368330777276]
			]
		}
	}

}, {
	"data": {
		"type": "Feature",
		"properties": {
			"sensor_name": "tracker2",
			"timestamp_array": [
				1451606400,
				1454284800,
				1456790400,
				1459468800,
				1462060800,
				1464739200,
				1467331200,
				1470009600,
				1472688000,
				1475280000,
				1477958400,
				1480550400,
				1483228800,
				1485907200,
				1488326400,
				1491004800,
				1493596800,
				1496275200,
				1498867200,
				1501545600,
				1504224000
			]
		},
		"geometry": {
			"type": "LineString",
			"coordinates": [
				[-122.48369693756104, 37.83381888486939],
				[-122.48348236083984, 37.83317489144141],
				[-122.48339653015138, 37.83270036637107],
				[-122.48356819152832, 37.832056363179625],
				[-122.48404026031496, 37.83114119107971],
				[-122.48404026031496, 37.83049717427869],
				[-122.48348236083984, 37.829920943955045],
				[-122.48356819152832, 37.82954808664175],
				[-122.48507022857666, 37.82944639795659],
				[-122.48610019683838, 37.82880236636284],
				[-122.48695850372314, 37.82931081282506],
				[-122.48700141906738, 37.83080223556934],
				[-122.48751640319824, 37.83168351665737],
				[-122.48803138732912, 37.832158048267786],
				[-122.48888969421387, 37.83297152392784],
				[-122.48987674713133, 37.83263257682617],
				[-122.49043464660643, 37.832937629287755],
				[-122.49125003814696, 37.832429207817725],
				[-122.49163627624512, 37.832564787218985],
				[-122.49223709106445, 37.83337825839438],
				[-122.49378204345702, 37.83368330777276]
			]
		}
	}
}, {
	"data": {
		"type": "Feature",
		"properties": {
			"sensor_name": "tracker3",
			"timestamp_array": [
				1451606400,
				1454284800,
				1456790400,
				1459468800,
				1462060800,
				1464739200,
				1467331200,
				1470009600,
				1472688000,
				1475280000,
				1477958400,
				1480550400,
				1483228800,
				1485907200,
				1488326400,
				1491004800,
				1493596800,
				1496275200,
				1498867200,
				1501545600,
				1504224000
			]
		},
		"geometry": {
			"type": "LineString",
			"coordinates": [
				[-122.48369693756104, 37.83381888486939],
				[-122.48348236083984, 37.83317489144141],
				[-122.48339653015138, 37.83270036637107],
				[-122.48356819152832, 37.832056363179625],
				[-122.48404026031496, 37.83114119107971],
				[-122.48404026031496, 37.83049717427869],
				[-122.48348236083984, 37.829920943955045],
				[-122.48356819152832, 37.82954808664175],
				[-122.48507022857666, 37.82944639795659],
				[-122.48610019683838, 37.82880236636284],
				[-122.48695850372314, 37.82931081282506],
				[-122.48700141906738, 37.83080223556934],
				[-122.48751640319824, 37.83168351665737],
				[-122.48803138732912, 37.832158048267786],
				[-122.48888969421387, 37.83297152392784],
				[-122.48987674713133, 37.83263257682617],
				[-122.49043464660643, 37.832937629287755],
				[-122.49125003814696, 37.832429207817725],
				[-122.49163627624512, 37.832564787218985],
				[-122.49223709106445, 37.83337825839438],
				[-122.49378204345702, 37.83368330777276]
			]
		}
	}
}, {
	"data": {
		"type": "Feature",
		"properties": {
			"sensor_name": "tracker4",
			"timestamp_array": [
				1451606400,
				1454284800,
				1456790400,
				1459468800,
				1462060800,
				1464739200,
				1467331200,
				1470009600,
				1472688000,
				1475280000,
				1477958400,
				1480550400,
				1483228800,
				1485907200,
				1488326400,
				1491004800,
				1493596800,
				1496275200,
				1498867200,
				1501545600,
				1504224000
			]
		},
		"geometry": {
			"type": "LineString",
			"coordinates": [
				[-122.48369693756104, 37.83381888486939],
				[-122.48348236083984, 37.83317489144141],
				[-122.48339653015138, 37.83270036637107],
				[-122.48356819152832, 37.832056363179625],
				[-122.48404026031496, 37.83114119107971],
				[-122.48404026031496, 37.83049717427869],
				[-122.48348236083984, 37.829920943955045],
				[-122.48356819152832, 37.82954808664175],
				[-122.48507022857666, 37.82944639795659],
				[-122.48610019683838, 37.82880236636284],
				[-122.48695850372314, 37.82931081282506],
				[-122.48700141906738, 37.83080223556934],
				[-122.48751640319824, 37.83168351665737],
				[-122.48803138732912, 37.832158048267786],
				[-122.48888969421387, 37.83297152392784],
				[-122.48987674713133, 37.83263257682617],
				[-122.49043464660643, 37.832937629287755],
				[-122.49125003814696, 37.832429207817725],
				[-122.49163627624512, 37.832564787218985],
				[-122.49223709106445, 37.83337825839438],
				[-122.49378204345702, 37.83368330777276]
			]
		}
	}
}, {
	"data": {
		"type": "Feature",
		"properties": {
			"sensor_name": "tracker5",
			"timestamp_array": [
				1451606400,
				1454284800,
				1456790400,
				1459468800,
				1462060800,
				1464739200,
				1467331200,
				1470009600,
				1472688000,
				1475280000,
				1477958400,
				1480550400,
				1483228800,
				1485907200,
				1488326400,
				1491004800,
				1493596800,
				1496275200,
				1498867200,
				1501545600,
				1504224000
			]
		},
		"geometry": {
			"type": "LineString",
			"coordinates": [
				[-122.48369693756104, 37.83381888486939],
				[-122.48348236083984, 37.83317489144141],
				[-122.48339653015138, 37.83270036637107],
				[-122.48356819152832, 37.832056363179625],
				[-122.48404026031496, 37.83114119107971],
				[-122.48404026031496, 37.83049717427869],
				[-122.48348236083984, 37.829920943955045],
				[-122.48356819152832, 37.82954808664175],
				[-122.48507022857666, 37.82944639795659],
				[-122.48610019683838, 37.82880236636284],
				[-122.48695850372314, 37.82931081282506],
				[-122.48700141906738, 37.83080223556934],
				[-122.48751640319824, 37.83168351665737],
				[-122.48803138732912, 37.832158048267786],
				[-122.48888969421387, 37.83297152392784],
				[-122.48987674713133, 37.83263257682617],
				[-122.49043464660643, 37.832937629287755],
				[-122.49125003814696, 37.832429207817725],
				[-122.49163627624512, 37.832564787218985],
				[-122.49223709106445, 37.83337825839438],
				[-122.49378204345702, 37.83368330777276]
			]
		}
	}
}, {
	"data": {
		"type": "Feature",
		"properties": {
			"sensor_name": "tracker6",
			"timestamp_array": [
				1451606400,
				1454284800,
				1456790400,
				1459468800,
				1462060800,
				1464739200,
				1467331200,
				1470009600,
				1472688000,
				1475280000,
				1477958400,
				1480550400,
				1483228800,
				1485907200,
				1488326400,
				1491004800,
				1493596800,
				1496275200,
				1498867200,
				1501545600,
				1504224000
			]
		},
		"geometry": {
			"type": "LineString",
			"coordinates": [
				[-122.48369693756104, 37.83381888486939],
				[-122.48348236083984, 37.83317489144141],
				[-122.48339653015138, 37.83270036637107],
				[-122.48356819152832, 37.832056363179625],
				[-122.48404026031496, 37.83114119107971],
				[-122.48404026031496, 37.83049717427869],
				[-122.48348236083984, 37.829920943955045],
				[-122.48356819152832, 37.82954808664175],
				[-122.48507022857666, 37.82944639795659],
				[-122.48610019683838, 37.82880236636284],
				[-122.48695850372314, 37.82931081282506],
				[-122.48700141906738, 37.83080223556934],
				[-122.48751640319824, 37.83168351665737],
				[-122.48803138732912, 37.832158048267786],
				[-122.48888969421387, 37.83297152392784],
				[-122.48987674713133, 37.83263257682617],
				[-122.49043464660643, 37.832937629287755],
				[-122.49125003814696, 37.832429207817725],
				[-122.49163627624512, 37.832564787218985],
				[-122.49223709106445, 37.83337825839438],
				[-122.49378204345702, 37.83368330777276]
			]
		}
	}
}, {
	"data": {
		"type": "Feature",
		"properties": {
			"sensor_name": "tracker7",
			"timestamp_array": [
				1451606400,
				1454284800,
				1456790400,
				1459468800,
				1462060800,
				1464739200,
				1467331200,
				1470009600,
				1472688000,
				1475280000,
				1477958400,
				1480550400,
				1483228800,
				1485907200,
				1488326400,
				1491004800,
				1493596800,
				1496275200,
				1498867200,
				1501545600,
				1504224000
			]
		},
		"geometry": {
			"type": "LineString",
			"coordinates": [
				[-122.48369693756104, 37.83381888486939],
				[-122.48348236083984, 37.83317489144141],
				[-122.48339653015138, 37.83270036637107],
				[-122.48356819152832, 37.832056363179625],
				[-122.48404026031496, 37.83114119107971],
				[-122.48404026031496, 37.83049717427869],
				[-122.48348236083984, 37.829920943955045],
				[-122.48356819152832, 37.82954808664175],
				[-122.48507022857666, 37.82944639795659],
				[-122.48610019683838, 37.82880236636284],
				[-122.48695850372314, 37.82931081282506],
				[-122.48700141906738, 37.83080223556934],
				[-122.48751640319824, 37.83168351665737],
				[-122.48803138732912, 37.832158048267786],
				[-122.48888969421387, 37.83297152392784],
				[-122.48987674713133, 37.83263257682617],
				[-122.49043464660643, 37.832937629287755],
				[-122.49125003814696, 37.832429207817725],
				[-122.49163627624512, 37.832564787218985],
				[-122.49223709106445, 37.83337825839438],
				[-122.49378204345702, 37.83368330777276]
			]
		}
	}
}, {
	"data": {
		"type": "Feature",
		"properties": {
			"sensor_name": "tracker8",
			"timestamp_array": [
				1451606400,
				1454284800,
				1456790400,
				1459468800,
				1462060800,
				1464739200,
				1467331200,
				1470009600,
				1472688000,
				1475280000,
				1477958400,
				1480550400,
				1483228800,
				1485907200,
				1488326400,
				1491004800,
				1493596800,
				1496275200,
				1498867200,
				1501545600,
				1504224000
			]
		},
		"geometry": {
			"type": "LineString",
			"coordinates": [
				[-122.48369693756104, 37.83381888486939],
				[-122.48348236083984, 37.83317489144141],
				[-122.48339653015138, 37.83270036637107],
				[-122.48356819152832, 37.832056363179625],
				[-122.48404026031496, 37.83114119107971],
				[-122.48404026031496, 37.83049717427869],
				[-122.48348236083984, 37.829920943955045],
				[-122.48356819152832, 37.82954808664175],
				[-122.48507022857666, 37.82944639795659],
				[-122.48610019683838, 37.82880236636284],
				[-122.48695850372314, 37.82931081282506],
				[-122.48700141906738, 37.83080223556934],
				[-122.48751640319824, 37.83168351665737],
				[-122.48803138732912, 37.832158048267786],
				[-122.48888969421387, 37.83297152392784],
				[-122.48987674713133, 37.83263257682617],
				[-122.49043464660643, 37.832937629287755],
				[-122.49125003814696, 37.832429207817725],
				[-122.49163627624512, 37.832564787218985],
				[-122.49223709106445, 37.83337825839438],
				[-122.49378204345702, 37.83368330777276]
			]
		}
	}
}, {
	"data": {
		"type": "Feature",
		"properties": {
			"sensor_name": "tracker9",
			"timestamp_array": [
				1451606400,
				1454284800,
				1456790400,
				1459468800,
				1462060800,
				1464739200,
				1467331200,
				1470009600,
				1472688000,
				1475280000,
				1477958400,
				1480550400,
				1483228800,
				1485907200,
				1488326400,
				1491004800,
				1493596800,
				1496275200,
				1498867200,
				1501545600,
				1504224000
			]
		},
		"geometry": {
			"type": "LineString",
			"coordinates": [
				[-122.48369693756104, 37.83381888486939],
				[-122.48348236083984, 37.83317489144141],
				[-122.48339653015138, 37.83270036637107],
				[-122.48356819152832, 37.832056363179625],
				[-122.48404026031496, 37.83114119107971],
				[-122.48404026031496, 37.83049717427869],
				[-122.48348236083984, 37.829920943955045],
				[-122.48356819152832, 37.82954808664175],
				[-122.48507022857666, 37.82944639795659],
				[-122.48610019683838, 37.82880236636284],
				[-122.48695850372314, 37.82931081282506],
				[-122.48700141906738, 37.83080223556934],
				[-122.48751640319824, 37.83168351665737],
				[-122.48803138732912, 37.832158048267786],
				[-122.48888969421387, 37.83297152392784],
				[-122.48987674713133, 37.83263257682617],
				[-122.49043464660643, 37.832937629287755],
				[-122.49125003814696, 37.832429207817725],
				[-122.49163627624512, 37.832564787218985],
				[-122.49223709106445, 37.83337825839438],
				[-122.49378204345702, 37.83368330777276]
			]
		}
	}
}, {
	"data": {
		"type": "Feature",
		"properties": {
			"sensor_name": "tracker10",
			"timestamp_array": [
				1451606400,
				1454284800,
				1456790400,
				1459468800,
				1462060800,
				1464739200,
				1467331200,
				1470009600,
				1472688000,
				1475280000,
				1477958400,
				1480550400,
				1483228800,
				1485907200,
				1488326400,
				1491004800,
				1493596800,
				1496275200,
				1498867200,
				1501545600,
				1504224000
			]
		},
		"geometry": {
			"type": "LineString",
			"coordinates": [
				[-122.48369693756104, 37.83381888486939],
				[-122.48348236083984, 37.83317489144141],
				[-122.48339653015138, 37.83270036637107],
				[-122.48356819152832, 37.832056363179625],
				[-122.48404026031496, 37.83114119107971],
				[-122.48404026031496, 37.83049717427869],
				[-122.48348236083984, 37.829920943955045],
				[-122.48356819152832, 37.82954808664175],
				[-122.48507022857666, 37.82944639795659],
				[-122.48610019683838, 37.82880236636284],
				[-122.48695850372314, 37.82931081282506],
				[-122.48700141906738, 37.83080223556934],
				[-122.48751640319824, 37.83168351665737],
				[-122.48803138732912, 37.832158048267786],
				[-122.48888969421387, 37.83297152392784],
				[-122.48987674713133, 37.83263257682617],
				[-122.49043464660643, 37.832937629287755],
				[-122.49125003814696, 37.832429207817725],
				[-122.49163627624512, 37.832564787218985],
				[-122.49223709106445, 37.83337825839438],
				[-122.49378204345702, 37.83368330777276]
			]
		}
	}
}]